.Xil/Vivado-34136-USAUSLT-9KB21SI/hw_ila_data_1/zip_work/waveform.vcd
$date
        2023-Jan-06 22:06:36
$end
$version
        Vivado v2021.2 (64-bit)
$end
$timescale
        1ps
$end
$scope module dut $end
$var reg 1 " top_i/clk_wiz_clk_out1 $end
$var reg 1 # top_i/ac_bclk_1 $end
$var reg 1 $ top_i/ac_pblrc_1 $end
$var reg 1 % top_i/ac_reclrc_1 $end
$var reg 1 & top_i/ac_recdat_1 $end
$var reg 1 ' _TRIGGER $end
$var reg 1 ( _WINDOW $end
$var reg 1 ) _GAP $end
$upscope $end
$enddefinitions $end
#0
$dumpvars
0"
0#
0$
0%
0&
0'
1(
0)
$end
#2
1"
#7
0"
#11
1"
#12
1#
#15
0"
#19
1"
#23
0"
#27
1"
#29
0#
#31
0"
#35
1"
#39
0"
#43
1"
#45
1#
#47
0"
#51
1"
#55
0"
#59
1"
#61
0#
1&
#64
0"
#68
1"
#72
0"
#76
1"
#78
1#
#80
0"
#84
1"
#88
0"
#92
1"
#94
0#
0&
#96
0"
#100
1"
#104
0"
#108
1"
#110
1#
#112
0"
#116
1"
#120
0"
#125
1"
#126
0#
1&
#129
0"
#133
1"
#137
0"
#141
1"
#143
1#
#145
0"
#149
1"
#153
0"
#157
1"
#159
0#
#161
0"
#165
1"
#169
0"
#173
1"
#175
1#
#177
0"
#182
1"
#186
0"
#190
1"
#192
0#
#194
0"
#198
1"
#202
0"
#206
1"
#208
1#
#210
0"
#214
1"
#218
0"
#222
1"
#224
0#
0&
#226
0"
#230
1"
#234
0"
#238
1"
#240
1#
#243
0"
#247
1"
#251
0"
#255
1"
#257
0#
#259
0"
#263
1"
#267
0"
#271
1"
#273
1#
#275
0"
#279
1"
#283
0"
#287
1"
#289
0#
1&
#291
0"
#295
1"
#300
0"
#304
1"
#305
1#
#308
0"
#312
1"
#316
0"
#320
1"
#322
0#
0&
#324
0"
#328
1"
#332
0"
#336
1"
#338
1#
#340
0"
#344
1"
#348
0"
#352
1"
#354
0#
1&
#356
0"
#361
1"
#365
0"
#369
1"
#371
1#
#373
0"
#377
1"
#381
0"
#385
1"
#387
0#
0&
#389
0"
#393
1"
#397
0"
#401
1"
#403
1#
#405
0"
#409
1"
#413
0"
#418
1"
#419
0#
1&
